               PONTO DA ESFIHA
            Av. Rio Pequeno, 634
---------------------------------------------
              16/05/2017 18:34
                N. Cupom: 648
             *Sem valor fiscal*
*********************************************
             RELATORIO GERENCIAL
*********************************************
                    Itens
Cod. Produto                        Tot Qt V. UN      
201  ESFIHA CARNE                  4.95  5  0.99      
------------------------------------------------
                                  TOTAL R$ 4,95
------------------------------------------------

Forma: Cartao de Debito
Senha: 329
--